{
    "ScenarioDatabaseCredentials":{
	"url":"https://musicc.cp-catapult.org.uk",
        "username":"",
        "password":""
    },
    "QueryStringDirectory":"./queries/",
    "CertiTRACEOutputDirectory":"./output/",
    "Organisation":"Connected Places Catapult"
}

